<?xml version="1.0" standalone="no"?>
<!DOCTYPE svg PUBLIC "-//W3C//DTD SVG 1.1//EN" "http://www.w3.org/Graphics/SVG/1.1/DTD/svg11.dtd">
<svg xmlns="http://www.w3.org/2000/svg">
<metadata>Generated by Fontastic.me</metadata>
<defs>
<font id="iconos" horiz-adv-x="512">
<font-face font-family="iconos" units-per-em="512" ascent="480" descent="-32"/>
<missing-glyph horiz-adv-x="512" />

<glyph glyph-name="plane-airport" unicode="&#97;" d="M448 466c8-10 10-24 3-42-6-18-16-35-30-49l-46-46 45-199c1-4 0-7-3-9l-37-28c-1-1-3-2-5-2-1 0-2 1-2 1-3 0-5 2-6 4l-80 145-74-74 15-55c1-3 0-6-2-9l-27-27c-2-2-4-3-7-3l-1 0c-2 1-5 2-6 4l-54 72-72 54c-3 1-4 3-4 6 0 3 1 5 2 8l28 27c2 2 4 3 6 3 2 0 2 0 3 0l55-16 74 74-145 80c-3 2-4 4-5 7 0 3 1 6 3 8l36 36c3 3 6 4 9 3l190-46 46 46c14 14 30 25 49 31 18 6 32 5 42-4z"/>
<glyph glyph-name="fighter-jet" unicode="&#99;" d="M512 239c0-6-26-14-77-26l-94-8-59-17-17 0-79-94 19 0c4 0 8-1 12-1 3-1 5-2 5-3 0-2-2-3-5-3-4-1-8-2-12-2l-86 0 0 9 18 0 0 111-43 0-51-60-26 0-8 9 0 51 8 0 0 8 34 0 0 2-51 7 0 34 51 6 0 3-34 0 0 8-8 0 0 51 8 9 26 0 51-60 43 0 0 111-18 0 0 9 86 0c4 0 8-1 12-2 3 0 5-1 5-3 0-1-2-2-5-3-4-1-8-1-12-1l-19 0 79-94 17 0 59-17 94-8c47-11 72-19 77-25z"/>
<glyph glyph-name="dollar" unicode="&#98;" d="M278 283l0 51c17-4 33-12 47-24l0 0c1-1 2-1 4-1 1 0 3 1 4 2l0 0 22 31 0 0c1 1 1 2 1 4 0 1 0 3-2 4-20 19-46 30-76 33l0 30 0 0c0 3-3 6-6 6l-23 0c-4 0-6-3-6-6l0-29c-51-5-81-38-81-75 0-51 42-66 81-76l0-58c-25 5-46 18-59 32 0 0-1 0-1 0 0 0 0 1 0 1l0 0c-1 0-2 1-4 1-2 0-4-1-5-3l0 0-21-32 0 0c-1-1-1-2-1-3 0-2 0-4 2-5l0 0c20-21 49-36 89-39l0-28c0-3 2-6 6-6l23 0c3 0 6 3 6 6l0 0 0 28c55 6 82 38 82 79 0 52-43 67-82 77z m-35 8c-16 5-26 11-26 22 0 12 9 21 26 24z m35-116l0 50c16-5 28-11 28-24 0-12-9-23-28-26z"/>
<glyph glyph-name="dollar-1" unicode="&#100;" d="M389 173c0-29-9-54-28-75-19-21-44-34-74-39l0-50c0-3-1-5-3-6-1-2-4-3-6-3l-39 0c-2 0-4 1-6 3-2 2-3 4-3 6l0 50c-13 2-25 5-36 9-12 4-22 8-29 13-8 4-15 9-22 13-6 5-10 9-13 11-2 2-4 4-5 5-3 4-3 8 0 12l29 39c1 1 4 3 7 3 2 0 5 0 6-3l1 0c22-19 45-31 69-36 7-1 15-2 22-2 15 0 29 4 40 12 12 8 18 20 18 35 0 5-2 10-4 15-3 5-6 9-10 12-4 3-9 7-17 11-7 4-14 7-19 9-5 2-12 5-22 9-8 3-14 6-18 7-4 2-10 5-18 8-7 3-13 6-17 9-5 2-10 6-17 10-6 4-11 8-15 12-4 4-8 9-12 14-5 6-8 11-10 17-3 5-5 12-6 19-2 7-3 14-3 22 0 26 9 49 28 69 19 20 43 33 73 38l0 52c0 2 1 4 3 6 2 2 4 3 6 3l39 0c2 0 5-1 6-3 2-1 3-3 3-6l0-50c11-2 21-4 31-7 11-3 19-6 25-10 7-3 13-6 18-10 6-4 10-7 12-9 1-1 3-2 4-4 3-3 4-7 1-10l-23-42c-1-3-4-5-6-5-3 0-6 0-8 2-1 1-2 2-4 4-2 1-6 4-11 7-6 4-11 7-17 9-6 3-13 6-21 8-9 2-17 3-25 3-18 0-33-4-44-12-12-8-17-19-17-32 0-5 1-9 2-14 2-4 5-8 9-11 4-4 7-7 11-10 3-2 9-5 16-9 7-3 13-6 17-7 5-2 11-5 20-8 10-4 18-7 23-9 6-2 13-6 22-10 9-5 16-9 22-12 5-4 11-9 17-15 7-6 12-12 15-18 4-6 7-13 9-22 3-8 4-17 4-27z"/>
<glyph glyph-name="money-banknote" unicode="&#101;" d="M205 188l102 0 0 25-34 0 0 120-30 0-40-37 21-21c7 7 12 12 14 15l1 0 0-77-34 0z m136 68c0-12-2-25-5-38-4-13-9-25-16-36-7-11-16-20-27-27-11-6-24-10-37-10-13 0-26 4-37 10-11 7-20 16-27 27-7 11-12 23-16 36-3 13-5 26-5 38 0 12 2 25 5 38 4 13 9 25 16 36 7 11 16 20 27 27 11 6 24 10 37 10 13 0 26-4 37-10 11-7 20-16 27-27 7-11 12-23 16-36 3-13 5-26 5-38z m137-68l0 136c-19 0-35 7-48 20-14 14-20 30-20 49l-308 0c0-19-6-35-20-49-13-13-29-20-48-20l0-136c19 0 35-7 48-20 14-14 20-30 20-49l308 0c0 19 6 35 20 49 13 13 29 20 48 20z m34 222l0-308c0-4-2-8-5-12-3-3-7-5-12-5l-478 0c-5 0-9 2-12 5-3 4-5 8-5 12l0 308c0 4 2 8 5 12 3 3 7 5 12 5l478 0c5 0 9-2 12-5 3-4 5-8 5-12z"/>
<glyph glyph-name="banknote" unicode="&#102;" d="M503 343l-160 160c-8 8-20 11-31 8-5-1-11-4-15-8-3-4-6-9-8-14-7-23-19-43-38-62-25-25-57-43-91-63-36-21-74-43-104-74-26-26-44-55-55-89-3-11 0-23 8-32l160-160c8-8 20-11 31-8 5 1 11 4 15 8 3 4 6 8 8 14 7 23 19 43 38 62 25 25 57 43 91 63 36 21 74 43 104 74 26 26 44 55 55 89 3 11 0 23-8 32z m-311-311c-53 53-107 107-160 160 45 147 243 141 288 288 53-53 107-107 160-160-45-147-243-141-288-288z m121 242c-5 4-10 7-16 8-5 2-10 2-16 2-5 0-10-2-16-4-5-2-10-4-16-7-8 10-17 20-26 29 4 4 8 5 12 6 3 0 7-1 10-2 3 0 7-1 9-2 3 0 6 0 8 2 2 2 4 5 4 8 0 3-1 6-4 9-3 4-7 6-12 7-5 1-10 1-15 0-5-1-10-3-15-6-4-3-8-5-10-8-2 1-3 2-4 3-1 1-2 2-4 2-2 0-3-1-4-3-1-1-2-2-2-4 0-2 1-3 2-4 1-1 2-2 3-3-4-5-7-10-10-16-2-6-4-11-5-17 0-6 0-11 2-15 2-5 5-9 10-13 7-6 16-9 26-8 11 0 22 3 33 10 10-11 19-22 29-32-4-4-8-6-11-6-3-1-6-1-8 0-3 1-5 2-7 3-2 2-4 3-6 4-2 1-5 2-7 2-2 0-4-1-7-3-2-3-4-5-4-8 0-3 2-6 4-9 3-4 7-6 11-8 4-2 9-3 14-4 6 0 11 1 17 3 6 2 12 6 18 12 2-3 5-6 8-8 1-1 3-2 4-2 2 1 4 1 5 3 1 1 1 3 1 4 0 2-1 3-2 4-3 3-5 5-8 7 5 6 8 12 11 19 3 6 5 12 5 17 1 6 0 11-1 15-2 5-5 9-10 13z m-89-11c-5 0-9 1-12 4-2 2-3 4-4 6 0 2 0 4 0 6 0 3 1 5 2 8 1 2 3 5 5 7 8-8 16-17 25-26-7-3-12-5-16-5z m75-32c-1-3-3-5-5-7-9 9-18 19-27 29 2 1 5 2 7 3 3 1 6 2 8 2 3 1 5 1 8 0 3-1 5-2 7-4 3-3 4-5 5-7 0-3 0-6 0-8-1-3-2-6-3-8z m-64-74l0 0c-10-8-19-16-28-25-9-8-17-18-24-27l-11-15 0 0c-2-3-1-7 1-10 4-3 9-3 12 0 0 1 1 1 1 2l10 14c7 8 14 17 22 25 9 9 17 16 27 24l0 0c1 0 1 0 1 0 3 3 3 8 0 12-3 3-7 3-11 0z m59 232c-8-9-17-16-27-24 0 0-1 0-2-1-3-3-3-8 0-11 3-3 8-3 12-1l0 0c10 8 19 16 28 25 9 9 17 18 24 27l11 15 0 0c2 4 2 8-1 11-3 4-8 4-11 0-1 0-1-1-2-2l-10-14c-7-9-14-17-22-25z"/>
<glyph glyph-name="check-mark" unicode="&#103;" d="M477 350c0-7-2-14-8-19l-206-207-39-39c-6-5-12-8-20-8-7 0-14 3-19 8l-142 142c-6 6-8 12-8 20 0 7 2 14 8 19l38 39c6 5 12 8 20 8 7 0 14-3 19-8l84-84 188 188c5 5 12 8 19 8 8 0 14-3 20-8l38-39c6-6 8-12 8-20z"/>
<glyph glyph-name="check" unicode="&#104;" d="M212 77c-11 0-21 5-28 14 0 0-92 121-92 121-6 8-8 17-6 27 1 9 5 17 13 23 7 6 16 9 26 7 10-1 18-6 24-14 0 0 60-79 60-79 0 0 152 243 152 243 5 8 13 13 22 15 9 2 18 1 27-4 8-5 13-13 15-22 3-9 1-18-4-27 0 0-179-287-179-287-7-11-16-16-28-16 0 0-2-1-2-1"/>
<glyph glyph-name="check-1" unicode="&#105;" d="M451 357l-66 66c-3 2-6 4-9 4-3 0-7-2-9-4l-176-176-46 47c-5 5-13 5-18 0l-66-66c-2-3-3-6-3-9 0-3 1-7 3-9l121-121c3-2 6-4 9-4 0 0 0 1 0 1 1 0 1-1 1-1 3 0 6 2 9 4l250 250c5 5 5 13 0 18z"/>
<glyph glyph-name="linux" unicode="&#106;" d="M226 395c-2-1-4-2-4-3-1-2-2-3-3-3-1 0-1 0-1 1 0 3 2 4 5 5z m25-4c-1-1-2 0-3 1-2 2-4 2-5 2 4 2 7 2 9-1 0-1 0-2-1-2z m-100-122c-1 0-2-1-2-1-1-1-1-2-1-4-1-1-1-3-2-4-1-1-2-2-3-3-1-2-1-3 0-4 1 0 2 1 3 2 2 2 3 3 4 5 0 1 0 2 1 2 0 1 0 2 0 2 0 0 0 1 1 1 0 1 0 1 0 1l0 1c0 0 0 1-1 1 0 0 0 1 0 1z m244-103c0 3-5 7-16 12 1 3 2 5 2 8 1 2 1 5 2 7 0 3 0 5 1 6 0 2 0 4 0 7 0 3-1 4-1 5 0 1 0 3-1 7 0 3-1 5-1 6 0 0 0 3-1 7-1 4-2 6-2 7-2 9-6 19-13 30-7 10-14 17-21 21 5-4 10-12 17-24 16-30 21-57 15-79-2-8-7-12-14-12-6-1-10 1-11 5-2 5-2 13-3 24 0 12-1 22-3 31-2 7-3 14-5 19-2 6-4 10-6 13-2 3-3 6-4 7-2 2-3 4-4 5-1 1-2 2-2 2-3 12-6 21-9 29-3 8-6 13-9 16-2 3-4 6-6 10-2 3-4 7-5 11 0 4 0 9 2 15 2 6 2 11 1 14-1 4-5 6-12 8-3 0-7 2-13 5-6 3-9 4-10 4-2 0-3 3-3 8-1 4 0 9 2 14 2 5 6 8 10 8 7 1 12-2 15-9 3-6 3-11 1-16-2-4-2-6-1-8 2-1 5-1 9 0 2 1 4 4 4 10l0 11c-1 6-3 10-4 14-2 4-4 7-6 9-3 2-5 3-7 4-2 1-5 2-8 2-20-1-28-14-25-38 0-3 0-4 0-4-2 2-5 3-9 3-4 0-7 0-9 0-3-1-4 0-5 1 1 11-1 20-4 26-3 6-8 9-13 10-5 0-9-3-12-8-3-6-4-11-5-17 0-3 1-7 1-11 1-4 3-8 4-11 2-3 3-4 5-3 1 0 3 1 4 4 1 1 0 2-2 2-1 0-3 1-4 4-2 3-3 6-3 10 0 4 1 7 3 10 1 3 5 4 9 4 4 0 6-2 8-6 2-4 3-8 3-11 0-3-1-6-1-6-4-3-7-6-9-9-1-2-4-4-7-6-4-2-6-4-6-4-3-3-4-5-5-8 0-2 1-4 2-5 3-1 5-3 8-5 2-2 3-4 4-6 1-1 3-2 5-3 3-1 6-2 11-2 9-1 18 1 29 4 0 0 2 1 6 2 4 1 8 2 10 3 3 1 6 2 9 4 3 1 5 3 6 5 1 2 3 3 5 2 1-1 2-1 2-2 0-1 0-3-1-4-1-1-2-2-4-3-4-1-10-3-17-6-7-3-11-5-13-5-8-4-15-6-20-7-4-1-12-1-22 1-2 0-3 0-3-1 0-1 2-2 5-5 5-5 11-7 19-7 4 1 7 1 11 2 3 2 7 3 10 4 3 2 6 4 9 5 4 2 6 4 9 5 3 2 5 3 7 4 2 1 4 1 5 0 1 0 2-1 2-3 0 0 0-1 0-1 0 0 0-1-1-1-1-1-1-1-2-2 0 0-1-1-2-1-1-1-2-1-3-1 0-1-1-1-3-2-1-1-2-1-2-1-6-3-12-7-20-13-7-5-13-10-19-12-5-2-9-3-14 0-4 2-10 9-18 21-4 5-6 8-7 6 0-1 0-2 0-3 0-5-1-10-4-16-3-6-6-11-9-16-2-5-4-10-6-17-1-6 0-12 4-18-5-1-11-9-18-25-8-16-12-30-14-41 0-3 0-10 0-19 0-10-1-16-2-17-1-5-4-5-8-1-6 6-10 15-10 27-1 5 0 11 1 16 0 3 0 5-1 5l-1-1c-7-13-6-29 3-48 1-2 3-5 7-8 4-3 6-5 7-6 4-4 14-13 30-25 16-13 25-21 26-22 3-3 5-7 5-11 1-5-1-9-4-12-3-4-7-6-13-7 2-3 5-7 9-13 4-5 6-10 8-15 1-5 2-12 2-20 8 4 9 13 2 26-1 2-2 3-3 5-2 1-2 2-3 3-1 1-1 1-1 2 1 1 2 2 4 2 2 1 4 1 6 0 9-10 24-14 47-11 26 3 42 12 51 25 4 8 7 10 10 9 2-1 3-6 2-15 0-5-2-14-6-26-2-5-2-8-2-11 1-3 3-4 7-4 1 3 2 11 4 22 2 11 4 19 4 25 0 4 0 11-2 21-1 10-2 20-2 28 0 8 2 15 7 20 2 4 7 5 14 5 0 7 4 12 10 15 6 3 13 4 21 3 7-1 13-3 17-6z m-180 236c1 4 1 6 0 9-1 2-2 4-4 4-1 1-2 0-2-2 0-1 1-1 1-2 2 0 3-1 2-4 0-4 0-6 3-6 0 0 0 1 0 1z m120-56c0 2-1 3-2 3-1 1-2 1-3 2-2 0-3 1-5 1-1 1-1 2-2 3-1 1-2 1-2 2-1 0-1 1-2 2 0 0-1 1-1 1 0 0-1 0-1-1-3-3-2-7 2-12 4-5 8-8 11-9 2 0 3 1 4 2 1 2 2 4 1 6z m-51 61c0 2 0 4-1 5-1 2-2 3-3 4-1 1-2 1-3 1-3 0-3-1-2-2l1-1c3 0 5-3 5-9 0 0 1 0 3 1z m16 66c0 1-1 1-1 2 0 0-1 1-3 2-1 1-2 1-2 2-3 2-5 4-7 4-2 0-3-1-3-2-1-2-1-3-1-4 1-1 1-2 0-4 0 0-1-1-2-3-1-1-1-2-1-2 0-1 0-1 1-3 0 0 1 0 2 0 1 1 2 2 3 3 1 1 3 2 4 3 0 0 1 0 3 0 1 0 3 0 4 0 1 1 2 1 3 2z m161-383c4-2 7-4 9-7 2-2 3-4 3-7 1-2 0-4 0-6-1-2-2-4-5-6-2-2-4-4-6-6-3-1-5-3-9-5-4-2-7-4-9-5-2-1-6-3-9-4-4-2-6-3-8-4-7-4-15-9-24-16-9-7-17-13-22-18-3-3-10-5-19-6-10-1-18 1-26 4-3 2-6 4-8 7-2 3-4 5-5 7-1 2-3 4-6 6-3 1-8 2-14 3-8 0-20 0-37 0-3 0-9 0-16-1-7 0-13 0-17 0-8 0-16-2-22-5-7-2-12-5-16-8-3-3-7-6-12-8-5-3-10-4-15-4-6 1-16 4-32 9-16 6-30 10-42 13-3 0-8 1-14 2-6 1-11 2-15 3-3 1-7 1-11 3-4 1-7 2-9 4-3 1-4 3-5 5-2 5-2 11 2 19 3 9 5 14 5 16 0 3 0 7-1 11-1 5-2 9-3 12-1 4-2 7-1 11 0 3 1 6 3 8 2 2 8 3 16 4 8 0 14 1 17 3 6 3 10 7 12 10 2 3 3 8 3 15 4-14 1-24-9-31-6-4-14-5-23-4-7 1-11 0-13-3-2-3-2-8 2-16 0-1 1-3 2-5 1-3 2-4 2-5 1-2 1-3 2-5 0-2 0-4 0-7 0-2-2-7-5-14-3-6-4-11-4-13 1-4 4-6 11-8 4-1 12-3 24-5 12-2 22-4 28-6 5-1 12-3 21-6 10-3 18-5 24-7 6-1 11-1 16-1 8 1 14 4 18 8 4 4 7 9 7 14 0 5-1 10-2 17-2 6-4 11-6 14-2 4-4 8-5 11-23 36-40 59-49 69-13 14-23 18-32 11-2-1-4 0-4 5-1 3-1 6-1 11 0 5 1 10 3 14 2 5 4 9 7 14 3 4 5 8 6 12 2 4 4 11 8 20 3 10 6 18 8 23 2 5 5 11 9 17 3 7 7 12 11 16 21 27 33 45 35 55-2 22-4 51-4 89-1 17 2 31 7 43 5 12 15 22 30 30 7 4 17 6 30 6 10 0 20-1 30-4 10-3 18-7 25-12 11-8 20-19 26-34 7-16 10-30 9-43-1-18 2-38 8-61 7-21 20-42 38-62 11-11 20-27 29-47 8-19 14-38 17-54 1-9 2-18 1-24 0-7-1-12-3-16-2-4-4-6-6-6-2-1-4-3-7-6-2-3-5-6-7-10-3-4-7-7-12-10-5-2-11-4-17-4-4 1-7 1-9 2-3 1-5 2-7 4-1 2-3 3-4 4 0 1-2 3-3 6-1 3-2 5-2 6-5 7-9 9-12 8-4-1-6-6-8-14-2-8-1-17 2-28 4-13 4-31 0-55-2-13 0-22 5-29 6-7 13-10 21-9 9 0 17 3 24 10 12 9 20 15 26 19 6 3 16 7 30 12 10 3 17 7 22 10 4 4 6 7 5 10-1 3-4 6-7 8-4 3-9 5-15 7-6 2-11 7-14 14-3 7-5 14-4 20 0 7 1 12 4 14 0-6 1-11 2-16 2-5 3-9 4-12 2-3 4-5 6-8 3-2 5-4 6-5 2-1 4-3 6-4 3-1 5-2 5-3z"/>
<glyph glyph-name="home" unicode="&#107;" d="M503 314l-189 189c-8 7-17 10-27 9l-62 0c-10 1-19-2-27-9l-38-39 0 48-96 0 0-144-55-54c-7-8-10-17-9-27l0-63c0-18 14-32 32-32l32 0 0-160c0-18 14-32 32-32l320 0c18 0 32 14 32 32l0 160 32 0c18 0 32 14 32 32l0 63c1 10-2 19-9 27z m-55-58l-64 0 0-192-64 0 0 128-128 0 0-128-64 0 0 192-64 0 0 18 174 174 36 0 174-174z"/>
<glyph glyph-name="github" unicode="&#108;" d="M201 165c0-8-1-16-3-24-3-8-7-15-13-22-6-6-12-9-20-9-8 0-15 3-21 9-6 7-10 14-12 22-3 8-4 16-4 24 0 7 1 15 4 23 2 8 6 15 12 22 6 6 13 9 21 9 8 0 14-3 20-9 6-7 10-14 13-22 2-8 3-16 3-23z m183 0c0-8-1-16-4-24-2-8-6-15-12-22-6-6-13-9-21-9-8 0-14 3-20 9-6 7-10 14-13 22-2 8-3 16-3 24 0 7 1 15 3 23 3 8 7 15 13 22 6 6 12 9 20 9 8 0 15-3 21-9 6-7 10-14 12-22 3-8 4-16 4-23z m46 0c0 22-7 42-20 58-13 16-31 24-53 24-8 0-27-2-56-6-14-2-29-3-45-3-16 0-31 1-45 3-29 4-47 6-56 6-22 0-40-8-53-24-13-16-20-36-20-58 0-17 3-32 9-44 7-13 14-23 24-30 9-7 21-13 34-17 14-4 28-7 40-8 13-2 27-2 43-2l48 0c16 0 30 0 43 2 12 1 26 4 40 8 13 4 25 10 34 17 10 7 17 17 24 30 6 12 9 27 9 44z m64 50c0-40-6-71-18-95-7-14-17-27-30-38-13-10-26-19-40-24-14-6-30-11-49-14-18-3-34-5-49-6-14-1-30-1-47-1-15 0-29 0-41 0-12 1-26 2-42 4-16 2-31 5-44 9-13 3-26 8-39 14-13 6-24 14-34 23-11 10-19 21-25 33-12 24-18 55-18 95 0 45 13 83 39 113-5 16-8 32-8 49 0 22 5 42 15 62 21 0 39-4 54-11 16-8 34-20 54-36 28 7 58 10 89 10 28 0 54-3 80-9 20 16 37 27 53 35 16 7 34 11 54 11 10-20 15-40 15-62 0-17-3-33-8-48 26-31 39-69 39-114z"/>
<glyph glyph-name="instagram" unicode="&#109;" d="M426 105l0 185-39 0c4-12 6-25 6-38 0-24-6-46-18-66-13-20-29-36-50-48-21-12-44-18-69-18-37 0-69 13-96 39-27 26-40 57-40 93 0 13 2 26 6 38l-41 0 0-185c0-5 2-10 5-13 4-3 8-5 13-5l305 0c5 0 9 2 13 5 3 3 5 8 5 13z m-81 152c0 23-9 44-26 60-18 17-38 25-63 25-24 0-45-8-62-25-17-16-26-37-26-60 0-24 9-44 26-61 17-16 38-25 62-25 25 0 45 9 63 25 17 17 26 37 26 61z m81 103l0 47c0 5-2 10-6 14-4 4-8 6-14 6l-50 0c-5 0-10-2-14-6-4-4-5-9-5-14l0-47c0-6 1-10 5-14 4-4 9-6 14-6l50 0c6 0 10 2 14 6 4 4 6 8 6 14z m49 59l0-326c0-16-5-29-16-40-11-11-24-16-40-16l-326 0c-16 0-29 5-40 16-11 11-16 24-16 40l0 326c0 16 5 29 16 40 11 11 24 16 40 16l326 0c16 0 29-5 40-16 11-11 16-24 16-40z"/>
<glyph glyph-name="social-twitter" unicode="&#110;" d="M453 378c-14-6-30-11-46-12 16 10 29 25 35 44-15-9-33-16-51-19-15 15-36 25-59 25-45 0-81-36-81-81 0-6 1-12 2-18-67 3-127 35-167 84-7-12-11-25-11-40 0-28 15-53 36-68-13 1-25 4-36 11 0-1 0-1 0-2 0-39 28-71 65-79-7-2-14-3-22-3-5 0-10 1-15 2 10-32 40-56 76-56-28-22-63-35-101-35-6 0-13 0-19 1 36-23 78-36 124-36 149 0 230 123 230 230 0 3 0 7 0 10 16 12 29 26 40 42z"/>
<glyph glyph-name="octoface" unicode="&#111;" d="M470 373c5 10 18 51-4 106 0 0-34 11-110-41-32 8-66 10-100 10-34 0-68-2-100-10-76 52-110 41-110 41-22-55-9-96-4-106-26-28-42-63-42-107 0-165 107-202 255-202 149 0 257 37 257 202 0 44-16 79-42 107z m-214-278c-106 0-191 5-191 108 0 24 12 47 32 66 35 31 93 15 159 15 66 0 124 16 159-15 20-19 32-42 32-66 0-103-85-108-191-108z m-80 161c-22 0-39-26-39-57 0-32 17-57 39-57 21 0 38 25 38 57 0 31-17 57-38 57z m160 0c-21 0-38-26-38-57 0-32 17-57 38-57 22 0 39 25 39 57 0 31-17 57-39 57z"/>
<glyph glyph-name="hand-right" unicode="&#112;" d="M73 128c0 5-2 9-5 13-4 3-8 5-13 5-5 0-9-2-13-5-4-4-5-8-5-13 0-5 1-9 5-13 4-3 8-5 13-5 5 0 9 2 13 5 3 4 5 8 5 13z m402 165c0 9-3 18-11 25-7 7-16 11-25 11l-165 0c0 4 2 9 5 14 2 5 6 11 9 16 3 5 7 11 9 19 3 8 5 16 5 24 0 13-5 22-13 28-8 6-19 9-33 9-5 0-13-13-26-40-4-8-8-14-10-18-8-13-19-26-32-42-14-15-23-25-29-30-13-11-27-16-40-16l-9 0 0-183 9 0c14 0 29-3 48-9 18-7 36-13 55-19 19-6 36-9 51-9 36 0 54 16 54 48 0 5 0 10-1 16 5 3 10 8 13 15 4 7 5 14 5 21 0 7-1 13-5 20 10 9 15 20 15 34 0 4-1 10-3 15-1 6-4 11-7 14l95 0c10 0 18 4 26 11 7 7 10 16 10 26z m37 0c0-20-7-37-22-52-14-14-31-22-51-22l-48 0c-1-11-5-23-11-34 1-4 1-8 1-12 0-19-6-36-17-51 0-26-8-47-25-62-16-16-38-23-64-23-26 0-56 6-92 19-32 12-53 17-64 17l-82 0c-11 0-19 4-26 11-7 7-11 16-11 26l0 183c0 10 4 18 11 25 7 8 15 11 26 11l82 0c2 0 4 1 6 1 2 1 4 3 7 4 2 2 4 4 6 6 2 1 4 3 7 6 3 3 5 5 6 6 1 2 3 4 5 6 3 3 4 5 4 5 13 14 22 27 29 37 2 4 5 10 9 18 4 8 8 14 11 20 3 6 7 12 11 18 5 6 10 11 16 14 6 4 13 5 20 5 24 0 43-6 59-19 16-12 23-30 23-54 0-13-2-25-6-36l107 0c20 0 37-8 51-22 15-14 22-32 22-51z"/>
<glyph glyph-name="dribbble" unicode="&#113;" d="M256 512c-141 0-256-115-256-256 0-141 115-256 256-256 141 0 256 115 256 256 0 141-115 256-256 256z m0-51c48 0 91-17 126-44-17-14-51-41-104-66-20 35-43 70-70 103 15 4 31 7 48 7z m-87-20c15-21 41-59 68-106-58-19-124-20-175-16 17 54 56 98 107 122z m84-136c7-14 15-29 22-44-108-23-158-94-178-132-28 35-46 79-46 127 0 9 1 18 2 27 41-6 112-8 200 22z m39-85c19-47 36-98 46-151-25-11-53-18-82-18-49 0-93 18-128 46 51 71 110 106 164 123z m83-130c-3 14-14 69-41 139 62 9 112-3 124-6-9-55-40-102-83-133z m-56 177c-7 18-15 35-25 54 37 16 77 38 117 67 31-36 50-81 50-132-55 12-102 15-142 11z"/>
<glyph glyph-name="instagram-1" unicode="&#114;" d="M480 512l-448 0c-18 0-32-14-32-32l0-448c0-18 14-32 32-32l448 0c18 0 32 14 32 32l0 448c0 18-14 32-32 32z m-288-256c0 0 5 64 64 64 59 0 64-64 64-64 0 0 2-64-64-64-66 0-64 64-64 64z m256-192l-384 0 0 224 69 0c-3-10-5-21-5-32 0-71 57-128 128-128 71 0 128 57 128 128 0 11-2 22-5 32l69 0z m0 288l-96 0 0 96 96 0z"/>
<glyph glyph-name="ipad" unicode="&#115;" d="M480 512l-448 0c-18 0-32-14-32-32l0-448c0-18 14-32 32-32l448 0c18 0 32 14 32 32l0 448c0 18-14 32-32 32z m-32-384l-384 0 0 320 384 0z"/>
<glyph glyph-name="iphone" unicode="&#116;" d="M416 512l-320 0c-18 0-32-14-32-32l0-448c0-18 14-32 32-32l320 0c18 0 32 14 32 32l0 448c0 18-14 32-32 32z m-32-384l-256 0 0 320 256 0z"/>
<glyph glyph-name="pin-alt" unicode="&#117;" d="M256 512c-106 0-192-86-192-192 0-106 192-320 192-320 0 0 192 214 192 320 0 106-86 192-192 192z m0-320c-71 0-128 57-128 128 0 71 57 128 128 128 71 0 128-57 128-128 0-71-57-128-128-128z m0 192c-35 0-64-29-64-64 0-35 29-64 64-64 35 0 64 29 64 64 0 35-29 64-64 64z"/>
<glyph glyph-name="play" unicode="&#118;" d="M256 0c-141 0-256 115-256 256 0 141 115 256 256 256 141 0 256-115 256-256 0-141-115-256-256-256z m0 448c-106 0-192-86-192-192 0-106 86-192 192-192 106 0 192 86 192 192 0 106-86 192-192 192z m-64-96l160-96-160-96z"/>
<glyph glyph-name="portfolio" unicode="&#119;" d="M480 416l-128 0 0 64c0 18-14 32-32 32l-128 0c-18 0-32-14-32-32l0-64-128 0c-18 0-32-14-32-32l0-352c0-18 14-32 32-32l448 0c18 0 32 14 32 32l0 352c0 18-14 32-32 32z m-256 32l64 0 0-32-64 0z m224-384l-384 0 0 128 128 0 0-32 128 0 0 32 128 0z m0 160l-128 0 0 32-128 0 0-32-128 0 0 128 384 0z"/>
<glyph glyph-name="store" unicode="&#120;" d="M480 64l-32 0 0 64c0 18-14 32-32 32-18 0-32-14-32-32l0-64-256 0 0 64c0 18-14 32-32 32-18 0-32-14-32-32l0-64-32 0c-18 0-32-14-32-32 0-18 14-32 32-32l448 0c18 0 32 14 32 32 0 18-14 32-32 32z m0 448l-448 0c-18 0-32-14-32-32l0-192c0-35 29-64 64-64 35 0 64 29 64 64 0-35 29-64 64-64 35 0 64 29 64 64 0-35 29-64 64-64 35 0 64 29 64 64 0-35 29-64 64-64 35 0 64 29 64 64l0 192c0 18-14 32-32 32z"/>
<glyph glyph-name="subtract" unicode="&#121;" d="M256 512c-141 0-256-115-256-256 0-141 115-256 256-256 141 0 256 115 256 256 0 141-115 256-256 256z m0-448c-106 0-192 86-192 192 0 106 86 192 192 192 106 0 192-86 192-192 0-106-86-192-192-192z m-128 160l256 0 0 64-256 0z"/>
<glyph glyph-name="task" unicode="&#122;" d="M326 384l-97-103-44 47-41-44 87-92 137 147z m154 128l-448 0c-18 0-32-14-32-32l0-448c0-18 14-32 32-32l448 0c18 0 32 14 32 32l0 448c0 18-14 32-32 32z m-32-352l-96 0 0-96-192 0 0 96-96 0 0 288 384 0z"/>
<glyph glyph-name="record" unicode="&#65;" d="M256 48c115 0 208 93 208 208 0 115-93 208-208 208-115 0-208-93-208-208 0-115 93-208 208-208z"/>
<glyph glyph-name="krw" unicode="&#69;" d="M147 171l23 85-45 0 21-86c0 0 0 0 0-1 0 0 0 0 1 0 0 0 0 0-1 1 0 0 0 0 0 1z m33 122l10 36-83 0 9-36z m55 0l40 0-10 36-20 0z m128-123l22 86-46 0 23-85c0-1 0-1 0-1 1-1 1-1 1-1 0 0 0 0 0 0 0 1 0 1 0 1z m32 123l9 36-85 0 10-36z m117-10l0-18c0-3-1-5-3-6-1-2-3-3-6-3l-61 0-47-176c-1-5-4-7-9-7l-45 0c-5 0-8 2-9 7l-47 176-60 0-48-176c-1-5-4-7-9-7l-45 0c-2 0-4 1-6 2-1 1-2 3-3 5l-45 176-60 0c-3 0-5 1-6 3-2 1-3 3-3 6l0 18c0 3 1 5 3 7 1 2 3 3 6 3l50 0-9 36-41 0c-3 0-5 1-6 3-2 1-3 4-3 6l0 19c0 2 1 4 3 6 1 2 3 3 6 3l31 0-25 98c-1 3-1 6 1 8 2 2 5 3 8 3l39 0c5 0 8-2 9-6l25-103 103 0 28 103c1 4 4 6 9 6l36 0c4 0 7-2 8-6l28-103 105 0 26 103c1 4 4 6 9 6l39 0c3 0 6-1 8-3 2-2 2-5 1-8l-26-98 32 0c3 0 5-1 6-3 2-2 3-4 3-6l0-19c0-2-1-5-3-6-1-2-3-3-6-3l-42 0-9-36 51 0c3 0 5-1 6-3 2-2 3-4 3-7z"/>
<glyph glyph-name="area-chart" unicode="&#70;" d="M549 73l0-36-586 0 0 438 37 0 0-402z m-110 293l73-256-475 0 0 164 128 165 164-165z"/>
<glyph glyph-name="code" unicode="&#68;" d="M158 112l-14-14c-2-2-4-3-7-3-2 0-5 1-6 3l-134 133c-1 2-2 4-2 7 0 2 1 4 2 6l134 133c1 2 4 3 6 3 3 0 5-1 7-3l14-14c2-2 3-4 3-6 0-3-1-5-3-7l-112-112 112-113c2-1 3-4 3-6 0-3-1-5-3-7z m169 305l-107-369c0-2-2-4-4-5-2-2-5-2-7-1l-18 5c-2 1-4 2-5 4-1 2-2 5-1 7l107 369c0 3 2 4 4 6 2 1 5 1 7 0l18-4c2-1 4-3 5-5 1-2 2-4 1-7z m188-186l-134-133c-1-2-4-3-6-3-3 0-5 1-7 3l-14 14c-2 2-3 4-3 7 0 2 1 5 3 6l112 113-112 112c-2 2-3 4-3 7 0 2 1 4 3 6l14 14c2 2 4 3 7 3 2 0 5-1 6-3l134-133c1-2 2-4 2-6 0-3-1-5-2-7z"/>
<glyph glyph-name="code-fork" unicode="&#71;" d="M192 91c0 8-3 15-8 20-5 5-12 8-19 8-8 0-15-3-20-8-5-5-8-12-8-20 0-7 3-14 8-19 5-5 12-8 20-8 7 0 14 3 19 8 5 5 8 12 8 19z m0 330c0 7-3 14-8 19-5 5-12 8-19 8-8 0-15-3-20-8-5-5-8-12-8-19 0-8 3-15 8-20 5-5 12-8 20-8 7 0 14 3 19 8 5 5 8 12 8 20z m183-37c0 8-3 14-8 19-5 6-12 8-20 8-7 0-14-2-19-8-5-5-8-11-8-19 0-8 3-14 8-19 5-6 12-8 19-8 8 0 15 2 20 8 5 5 8 11 8 19z m27 0c0-10-2-19-7-28-5-8-12-15-20-19-1-55-22-95-65-119-13-7-32-15-58-23-24-7-40-14-48-20-8-6-12-16-12-29l0-7c8-5 15-12 20-20 5-8 7-18 7-28 0-15-5-28-16-38-10-11-23-16-38-16-16 0-29 5-39 16-11 10-16 23-16 38 0 10 2 20 7 28 5 8 12 15 20 20l0 234c-8 5-15 12-20 20-5 8-7 18-7 28 0 15 5 28 16 38 10 11 23 16 39 16 15 0 28-5 38-16 11-10 16-23 16-38 0-10-2-20-7-28-5-8-12-15-20-20l0-142c10 5 25 11 44 16 10 4 19 6 25 9 6 2 13 5 20 9 7 3 13 7 17 11 4 4 8 9 12 15 3 5 6 12 8 19 1 8 2 17 2 27-8 4-15 11-20 19-5 9-7 18-7 28 0 15 5 28 16 39 10 11 23 16 38 16 16 0 29-5 39-16 11-11 16-24 16-39z"/>
<glyph glyph-name="codepen" unicode="&#72;" d="M62 178l172-115 0 103-95 63z m-18 41l55 37-55 37z m234-156l172 115-77 51-95-63z m-22 141l78 52-78 52-78-52z m-117 79l95 63 0 103-172-115z m274-27l55-37 0 74z m-40 27l77 51-172 115 0-103z m139 51l0-156c0-8-3-14-10-18l-234-156c-4-3-8-4-12-4-4 0-8 1-12 4l-234 156c-7 4-10 10-10 18l0 156c0 8 3 14 10 18l234 156c4 3 8 4 12 4 4 0 8-1 12-4l234-156c7-4 10-10 10-18z"/>
<glyph glyph-name="compass" unicode="&#73;" d="M219 201l74 37-74 36z m110 169l0-155-146-73 0 155z m82-114c0 28-7 54-20 78-14 24-33 43-57 57-24 13-50 20-78 20-28 0-54-7-78-20-24-14-43-33-57-57-13-24-20-50-20-78 0-28 7-54 20-78 14-24 33-43 57-57 24-13 50-20 78-20 28 0 54 7 78 20 24 14 43 33 57 57 13 24 20 50 20 78z m64 0c0-40-9-77-29-110-20-34-46-60-80-80-33-20-70-29-110-29-40 0-77 9-110 29-34 20-60 46-80 80-20 33-29 70-29 110 0 40 9 77 29 110 20 34 46 60 80 80 33 20 70 29 110 29 40 0 77-9 110-29 34-20 60-46 80-80 20-33 29-70 29-110z"/>
<glyph glyph-name="compress" unicode="&#74;" d="M256 238l0-128c0-5-2-10-5-13-4-4-8-6-13-6-5 0-10 2-13 6l-41 41-95-95c-2-2-4-3-7-3-2 0-4 1-6 3l-33 33c-2 2-3 4-3 6 0 3 1 5 3 7l95 95-41 41c-4 3-6 8-6 13 0 5 2 9 6 13 3 3 8 5 13 5l128 0c5 0 9-2 13-5 3-4 5-8 5-13z m216 192c0-3-1-5-3-7l-95-95 41-41c4-3 6-8 6-13 0-5-2-9-6-13-3-3-8-5-13-5l-128 0c-5 0-9 2-13 5-3 4-5 8-5 13l0 128c0 5 2 10 5 13 4 4 8 6 13 6 5 0 10-2 13-6l41-41 95 95c2 2 4 3 7 3 2 0 4-1 6-3l33-33c2-2 3-4 3-6z"/>
<glyph glyph-name="connectdevelop" unicode="&#75;" d="M549 256c0-4-2-7-4-10-3-3-6-5-10-6l-58-101c0-2 1-4 1-6 0-3-1-7-4-10-2-3-5-5-9-5l-55-97c0-1 1-3 1-4 0-5-2-8-5-12-3-3-7-4-12-4-4 0-8 1-11 5l-115 0c-3-4-7-6-12-6-5 0-9 2-12 6l-114 0c-4-4-8-6-13-6-4 0-8 2-11 5-3 3-5 7-5 11 0 2 1 4 1 6l-55 96c-4 0-7 2-9 5-3 3-4 7-4 10 0 2 1 4 1 6l-59 101c-4 1-7 3-9 6-2 3-4 6-4 10 0 4 2 8 4 11 3 3 6 5 10 5l57 99c0 0 0 0 0 0-1 1-1 1-1 1 0 7 4 12 10 15l60 104c-1 1-1 3-1 5 0 4 1 8 5 11 3 3 7 5 11 5 5 0 9-2 13-6l113 0c3 4 7 6 12 6 5 0 9-2 12-6l114 0c3 4 8 6 13 6 4 0 8-2 11-5 3-3 5-7 5-11 0-1-1-3-1-5l59-103c4 0 8-2 11-5 3-3 5-7 5-11 0-2-1-5-2-7l53-93c4-1 7-3 9-6 2-3 4-6 4-10z m-282-228l111 0-97 101-41 0-98-101 103 0c3 3 7 5 11 5 4 0 8-2 11-5z m-272 232c1-1 1-2 1-4 0-2 0-3-1-4l60-103c0 0 0 0 1 0 0 0 1-1 1-1l2-1 54 57 0 99-54 56c-2-2-5-3-8-3z m250 224l-111 0 55-57 158 57-80 0c-3-3-7-5-11-5-4 0-8 2-11 5z m201-346c0 1 1 2 1 3l-18 19-5-22z m-30 0l6 30-72 76-85-88 18-18z m-25-105l4 8 19 88-122 0 95-98c1 1 3 1 4 2z m-262-5l1 0 98 101-107 0 0-96 1-1c3-1 5-2 7-4z m-8 110l115 0 18 19-88 91-45-47z m-55 0l47 0 0 54-48-51c0-1 1-3 1-3z m0 235c0 0 0 0 0 0 0 0 0-1 0-1 0-3-1-6-2-8l49-51 0 77z m55 20l0-88 44-45 85 89-64 68z m1 87l-1-2 0-75 59 21-55 57c-1 0-2-1-3-1z m255 4l-5 0-177-64 61-64z m-121-141l-85-90 89-91 84 88z m-96-89l-39 41 0-82z m100-104l-12-12 24 0z m96 100l68-72 38 178-1 2 0 0z m98 114c-1 2-2 5-2 8l0 1-62 107c-1 0-2 1-3 2l-125-133 88-93z m-341 35l0 64-47-80z m0-270l-47 0 47-81z m310 0l-14-65 37 65z m34 20l60 103c-1 2-1 4-1 4 0 0 0 2 1 5l-49 84-37-174 22-24c1 1 3 1 4 2z"/>
<glyph glyph-name="whatsapp" unicode="&#78;" d="M318 234c2 0 12-4 28-13 16-8 24-13 25-15 1-1 1-2 1-4 0-7-2-14-5-22-3-7-10-14-20-19-11-5-20-7-29-7-11 0-29 6-55 17-18 9-34 20-48 34-14 14-28 32-42 53-14 20-21 39-21 55l0 3c1 17 8 32 21 45 5 4 10 6 15 6 1 0 3 0 5 0 3-1 5-1 6-1 3 0 6 0 7-2 2-1 3-3 5-7 1-4 5-13 9-26 5-13 7-20 7-21 0-4-3-9-9-16-7-7-10-12-10-14 0-1 0-2 1-4 7-14 16-27 29-39 11-10 25-20 43-29 3-1 5-2 7-2 3 0 8 5 15 14 8 9 13 14 15 14z m-58-152c24 0 47 5 70 15 22 9 41 22 57 38 16 16 29 35 38 57 10 22 14 46 14 70 0 24-4 47-14 69-9 22-22 42-38 58-16 16-35 28-57 38-23 9-46 14-70 14-24 0-47-5-70-14-22-10-41-22-57-38-16-16-29-36-38-58-10-22-14-45-14-69 0-39 11-74 34-105l-23-67 69 22c31-20 63-30 99-30z m0 395c29 0 57-6 84-17 26-11 49-27 68-46 20-19 35-42 46-69 12-26 17-54 17-83 0-29-5-57-17-84-11-26-26-49-46-69-19-19-42-34-68-46-27-11-55-17-84-17-37 0-72 9-104 27l-119-38 38 116c-20 33-30 71-30 111 0 29 5 57 17 83 11 27 26 50 46 69 19 19 42 35 68 46 27 11 55 17 84 17z"/>
<glyph glyph-name="google-plus-square" unicode="&#67;" d="M273 164c0-14-5-25-16-32-11-7-25-11-40-11-8 0-16 1-23 3-8 2-15 5-22 8-7 4-12 9-16 15-4 7-7 14-7 23 0 8 3 16 8 23 4 6 11 11 18 14 8 4 16 6 24 7 8 2 16 3 24 3 4 0 7-1 9-1 0 0 2-2 6-5 4-3 7-4 8-5 1-1 3-3 6-5 4-3 6-5 7-7 2-1 3-3 6-6 2-3 4-5 5-7 0-3 1-5 2-8 1-3 1-6 1-9z m-21 156c0-12-3-21-9-29-6-7-15-11-26-11-11 0-19 4-27 12-8 8-13 17-16 28-4 10-5 20-5 30 0 12 3 22 9 30 6 8 15 12 26 12 10 0 19-4 27-13 7-8 13-18 16-29 4-10 5-21 5-30z m31 73l25 18-76 0c-16 0-32-3-46-9-14-6-27-15-36-28-10-12-15-27-15-43 0-18 6-33 18-45 13-11 28-17 46-17 4 0 8 0 12 1-3-6-4-11-4-16 0-8 4-17 12-27-34-2-58-8-74-18-9-5-16-12-21-20-6-9-9-18-9-28 0-8 2-15 6-22 3-6 8-12 14-16 5-4 12-8 19-10 8-3 15-5 22-6 8-2 15-2 22-2 12 0 23 1 35 4 11 3 22 8 32 13 10 6 18 14 25 24 6 10 9 21 9 33 0 10-2 18-6 26-3 8-8 14-14 19-5 5-11 9-16 14-6 4-10 8-14 12-4 4-6 9-6 13 0 4 2 8 5 12 3 4 6 8 10 11 4 4 9 8 13 12 4 5 8 10 11 17 3 7 4 15 4 24 0 11-2 21-6 28-5 8-12 16-21 26z m83-128l36 0 0 18-36 0 0 37-19 0 0-37-36 0 0-18 36 0 0-46 19 0z m109 128l0-274c0-23-8-42-24-58-16-16-35-24-58-24l-274 0c-23 0-42 8-58 24-16 16-24 35-24 58l0 274c0 23 8 42 24 58 16 16 35 24 58 24l274 0c23 0 42-8 58-24 16-16 24-35 24-58z"/>
<glyph glyph-name="file" unicode="&#76;" d="M329 366l0 135c4-3 8-6 10-8l117-117c3-3 5-6 8-10z m-36-9c0-8 2-15 8-20 5-5 11-8 19-8l155 0 0-302c0-7-2-14-8-19-5-5-11-8-19-8l-384 0c-8 0-14 3-19 8-6 5-8 12-8 19l0 458c0 7 2 14 8 19 5 5 11 8 19 8l229 0z"/>
<glyph glyph-name="android" unicode="&#77;" d="M196 374c3 0 5 1 8 3 2 2 3 5 3 8 0 3-1 6-3 8-3 2-5 3-8 3-3 0-6-1-8-3-2-2-3-5-3-8 0-3 1-6 3-8 2-2 5-3 8-3z m120 0c3 0 6 1 8 3 2 2 3 5 3 8 0 3-1 6-3 8-2 2-5 3-8 3-3 0-5-1-8-3-2-2-3-5-3-8 0-3 1-6 3-8 3-2 5-3 8-3z m-232-53c8 0 15-2 21-8 6-6 8-13 8-21l0-123c0-8-2-15-8-20-6-6-13-9-21-9-8 0-15 3-21 9-5 5-8 12-8 20l0 123c0 8 3 15 8 21 6 6 13 8 21 8z m303-5l0-190c0-9-3-16-9-23-6-6-13-9-22-9l-21 0 0-65c0-8-3-15-9-20-6-6-13-9-21-9-8 0-15 3-21 9-5 5-8 12-8 20l0 65-40 0 0-65c0-8-3-15-8-20-6-6-13-9-21-9-8 0-15 3-21 9-5 5-8 12-8 20l-1 65-21 0c-8 0-16 3-22 9-6 7-9 14-9 23l0 190z m-66 116c20-11 37-25 49-44 12-19 18-39 18-62l-264 0c0 23 6 43 18 62 12 19 29 33 49 44l-20 37c-1 3-1 5 1 6 3 1 5 0 6-2l21-38c18 8 37 12 57 12 20 0 39-4 57-12l21 38c1 2 3 3 6 2 2-1 2-3 1-6z m136-140l0-123c0-8-3-15-8-20-6-6-13-9-21-9-8 0-15 3-21 9-6 5-8 12-8 20l0 123c0 8 2 15 8 21 6 6 13 8 21 8 8 0 15-2 21-8 5-6 8-13 8-21z"/>
<glyph glyph-name="arrow-circle-down" unicode="&#79;" d="M403 256c0 5-1 9-5 13l-26 26c-3 3-7 5-13 5-5 0-9-2-12-5l-54-54 0 143c0 5-2 9-6 13-3 3-8 5-13 5l-36 0c-5 0-10-2-13-5-4-4-6-8-6-13l0-143-54 54c-3 3-7 5-12 5-5 0-10-2-13-5l-26-26c-4-4-5-8-5-13 0-5 1-10 5-13l103-104 26-26c4-3 8-5 13-5 5 0 9 2 13 5l26 26 103 104c4 3 5 8 5 13z m72 0c0-40-9-77-29-110-20-34-46-60-80-80-33-20-70-29-110-29-40 0-77 9-110 29-34 20-60 46-80 80-20 33-29 70-29 110 0 40 9 77 29 110 20 34 46 60 80 80 33 20 70 29 110 29 40 0 77-9 110-29 34-20 60-46 80-80 20-33 29-70 29-110z"/>
<glyph glyph-name="align-right" unicode="&#66;" d="M512 128l0-37c0-5-2-9-5-12-4-4-8-6-13-6l-476 0c-5 0-9 2-13 6-3 3-5 7-5 12l0 37c0 5 2 9 5 13 4 3 8 5 13 5l476 0c5 0 9-2 13-5 3-4 5-8 5-13z m0 110l0-37c0-5-2-9-5-13-4-3-8-5-13-5l-366 0c-5 0-9 2-13 5-3 4-5 8-5 13l0 37c0 5 2 9 5 13 4 3 8 5 13 5l366 0c5 0 9-2 13-5 3-4 5-8 5-13z m0 109l0-36c0-5-2-9-5-13-4-4-8-5-13-5l-439 0c-5 0-9 1-13 5-4 4-5 8-5 13l0 36c0 5 1 10 5 13 4 4 8 6 13 6l439 0c5 0 9-2 13-6 3-3 5-8 5-13z m0 110l0-36c0-5-2-10-5-13-4-4-8-6-13-6l-329 0c-5 0-10 2-13 6-4 3-6 8-6 13l0 36c0 5 2 9 6 13 3 4 8 5 13 5l329 0c5 0 9-1 13-5 3-4 5-8 5-13z"/>
<glyph glyph-name="amazon" unicode="&#80;" d="M443 90c3 1 5 2 8 1 2 0 3-2 3-5 0-3-2-6-5-9-2-3-6-8-12-13-6-5-15-12-27-19-13-8-26-15-41-21-14-7-32-12-53-17-22-5-44-7-66-7-23 0-45 3-68 9-23 6-43 13-60 22-17 8-33 18-49 29-16 12-28 22-38 30-9 9-17 18-24 25-1 2-2 4-3 5 0 2 0 3 1 4 0 0 1 1 2 2 1 0 2 0 3 0 1 0 2 0 3-1 37-22 66-38 86-48 74-33 150-42 228-25 37 7 74 20 112 38z m59 33c2-3 3-10 1-20-2-10-4-20-8-29-7-16-15-28-24-35-4-3-6-4-8-3-2 1-2 3 0 7 4 8 8 20 13 35 4 14 5 24 2 28-1 1-3 2-5 3-2 1-4 1-7 2-4 0-6 0-9 0-2 1-6 1-10 0-4 0-7 0-9 0-2 0-5-1-9-1-4 0-6-1-6-1-1 0-3 0-4 0-1 0-2 0-3 0-1 0-2 0-2-1-1 0-2 0-2 1l-3 0-1 0-1 0 0 1c-1 3 3 7 13 11 10 5 20 8 30 9 8 1 19 1 31 0 11-1 19-3 21-7z m-112 127c0-6 1-12 4-19 2-6 5-11 9-16 3-5 7-9 10-13 4-4 7-7 10-9l4-4-65-64c-8 7-15 15-23 22-7 7-13 13-16 17l-6 5c-2 3-4 6-7 10-7-11-17-21-28-29-11-9-23-15-36-19-13-3-27-6-40-6-14-1-27 1-40 6-12 4-23 11-33 19-10 7-18 18-24 32-6 13-9 29-9 46 0 16 3 31 8 44 6 14 12 25 21 34 8 8 18 16 30 23 12 7 24 13 35 17 12 3 24 7 37 9 14 3 25 5 35 6 9 1 18 1 28 2l0 36c0 12-2 21-6 28-6 10-18 15-35 15-1 0-2 0-4-1-2 0-6-1-12-3-6-2-11-5-16-8-5-4-10-10-16-17-6-8-10-17-14-28l-84 8c0 11 3 23 7 34 4 11 10 22 19 32 8 10 19 19 31 27 12 8 26 14 43 19 17 5 35 7 54 7 19 0 37-2 52-7 16-5 28-11 37-18 9-7 17-15 23-23 6-9 11-17 13-25 3-8 4-15 4-21z m-192-6c0-17 6-29 20-38 12-9 26-11 39-7 16 5 27 17 33 36 3 8 4 18 4 28l0 47c-11-1-22-2-32-4-10-2-20-5-30-9-11-5-19-12-25-21-6-9-9-20-9-32z"/>
<glyph glyph-name="angle-up" unicode="&#81;" d="M399 174c0-3-1-5-3-7l-15-14c-1-2-4-3-6-3-3 0-5 1-7 3l-112 112-112-112c-2-2-4-3-7-3-2 0-5 1-6 3l-15 14c-2 2-3 4-3 7 0 2 1 4 3 6l133 133c2 2 5 3 7 3 2 0 5-1 7-3l133-133c2-2 3-4 3-6z"/>
<glyph glyph-name="arrow-left" unicode="&#82;" d="M475 256l0-37c0-10-3-18-9-25-6-8-14-11-24-11l-201 0 84-84c7-7 10-16 10-26 0-10-3-19-10-26l-22-21c-7-7-15-11-26-11-9 0-18 4-26 11l-186 186c-7 7-10 16-10 26 0 10 3 18 10 26l186 185c8 8 16 11 26 11 10 0 19-3 26-11l22-21c7-7 10-16 10-26 0-10-3-18-10-26l-84-83 201 0c10 0 18-4 24-11 6-7 9-16 9-26z"/>
<glyph glyph-name="arrow-right" unicode="&#83;" d="M457 238c0-11-3-19-10-26l-186-186c-8-7-17-11-26-11-10 0-19 4-26 11l-22 21c-7 7-10 16-10 26 0 10 3 19 10 26l84 84-201 0c-10 0-18 3-24 11-6 7-9 15-9 25l0 37c0 10 3 19 9 26 6 7 14 11 24 11l201 0-84 84c-7 6-10 15-10 25 0 11 3 19 10 26l22 21c7 8 16 11 26 11 10 0 18-3 26-11l186-186c7-6 10-15 10-25z"/>
<glyph glyph-name="barcode" unicode="&#84;" d="M18 73l-18 0 0 402 18 0z m18 0l-9 0 0 402 9 0z m27 0l-9 0 0 402 9 0z m45 0l-9 0 0 402 9 0z m45 0l-18 0 0 402 18 0z m36 0l-9 0 0 402 9 0z m18 0l-9 0 0 402 9 0z m18 0l-9 0 0 402 9 0z m44 0l-18 0 0 402 18 0z m45 0l-18 0 0 402 18 0z m36 0l-18 0 0 402 18 0z m36 0l-18 0 0 402 18 0z m27 0l-18 0 0 402 18 0z m54 0l-27 0 0 402 27 0z m18 0l-9 0 0 402 9 0z m27 0l-18 0 0 402 18 0z"/>
<glyph glyph-name="bars" unicode="&#85;" d="M475 128l0-37c0-5-1-9-5-12-4-4-8-6-13-6l-402 0c-5 0-9 2-13 6-4 3-5 7-5 12l0 37c0 5 1 9 5 13 4 3 8 5 13 5l402 0c5 0 9-2 13-5 4-4 5-8 5-13z m0 146l0-36c0-5-1-10-5-13-4-4-8-6-13-6l-402 0c-5 0-9 2-13 6-4 3-5 8-5 13l0 36c0 5 1 10 5 13 4 4 8 6 13 6l402 0c5 0 9-2 13-6 4-3 5-8 5-13z m0 147l0-37c0-5-1-9-5-13-4-3-8-5-13-5l-402 0c-5 0-9 2-13 5-4 4-5 8-5 13l0 37c0 5 1 9 5 12 4 4 8 6 13 6l402 0c5 0 9-2 13-6 4-3 5-7 5-12z"/>
<glyph glyph-name="bell-slash" unicode="&#86;" d="M409 269c11-68 40-121 85-159 0-10-4-19-11-26-7-7-16-11-26-11l-128 0c0-20-7-37-21-52-15-14-32-21-52-21-20 0-37 7-52 21-14 14-21 32-21 52z m-153-246c3 0 5 1 5 4 0 3-2 5-5 5-11 0-21 4-29 12-8 8-12 18-12 29 0 3-2 5-5 5-3 0-4-2-4-5 0-14 5-26 14-35 10-10 22-15 36-15z m286 457c2-2 3-4 2-7 0-2-1-4-3-6l-534-464c-2-1-5-2-7-2-3 1-5 2-6 4l-24 27c-2 2-3 4-2 7 0 2 1 4 3 6l53 46c-4 6-6 12-6 19 10 8 18 16 26 25 8 9 16 20 25 34 8 14 15 29 21 45 6 16 10 36 14 59 4 23 6 48 6 74 0 29 11 56 33 81 22 25 52 40 88 45-2 4-2 8-2 12 0 7 2 14 8 19 5 5 11 8 19 8 8 0 14-3 19-8 6-5 8-12 8-19 0-4 0-8-2-12 24-3 45-11 63-23 18-12 32-27 42-45l119 104c2 1 5 2 7 2 3-1 5-2 6-4z"/>
<glyph glyph-name="bell-slash-o" unicode="&#87;" d="M261 27c0 3-2 5-5 5-11 0-21 4-29 12-8 8-12 18-12 29 0 3-2 5-5 5-3 0-4-2-4-5 0-14 5-26 14-35 10-10 22-15 36-15 3 0 5 1 5 4z m-154 136l251 217c-8 17-21 31-38 42-17 11-39 17-64 17-18 0-34-3-48-9-15-6-27-14-35-23-9-9-15-19-20-30-4-10-7-20-7-30 0-73-13-134-39-184z m387-53c0-10-4-19-11-26-7-7-16-11-26-11l-128 0c0-20-7-37-21-52-15-14-32-21-52-21-20 0-37 7-52 21-14 14-21 32-21 52l42 37 217 0c-32 35-54 79-65 131l32 28c11-68 40-121 85-159z m24 397l24-27c2-2 3-4 2-7 0-2-1-4-3-6l-534-464c-2-1-5-2-7-2-3 1-5 2-6 4l-24 27c-2 2-3 4-2 7 0 2 1 4 3 6l53 46c-4 6-6 12-6 19 10 8 18 16 26 25 8 9 16 20 25 34 8 14 15 29 21 45 6 16 10 36 14 59 4 23 6 48 6 74 0 29 11 56 33 81 22 25 52 40 88 45-2 4-2 8-2 12 0 7 2 14 8 19 5 5 11 8 19 8 8 0 14-3 19-8 6-5 8-12 8-19 0-4 0-8-2-12 24-3 45-11 63-23 18-12 32-27 42-45l119 104c2 1 5 2 7 2 3-1 5-2 6-4z"/>
<glyph glyph-name="file-text-o" unicode="&#88;" d="M456 403c5-5 10-12 14-21 4-9 5-18 5-25l0-330c0-7-2-14-8-19-5-5-11-8-19-8l-384 0c-8 0-14 3-19 8-6 5-8 12-8 19l0 458c0 7 2 14 8 19 5 5 11 8 19 8l256 0c8 0 16-2 25-6 9-4 17-8 22-13z m-127 70l0-107 108 0c-2 5-4 9-7 11l-89 90c-2 2-6 4-12 6z m110-436l0 292-119 0c-8 0-14 3-19 8-6 5-8 12-8 20l0 118-220 0 0-438z m-293 246c0 3 1 5 3 7 2 2 4 3 6 3l202 0c2 0 4-1 6-3 2-2 3-4 3-7l0-18c0-3-1-5-3-6-2-2-4-3-6-3l-202 0c-2 0-4 1-6 3-2 1-3 3-3 6z m211-64c2 0 4 0 6-2 2-2 3-4 3-7l0-18c0-3-1-5-3-7-2-1-4-2-6-2l-202 0c-2 0-4 1-6 2-2 2-3 4-3 7l0 18c0 3 1 5 3 7 2 2 4 2 6 2z m0-73c2 0 4-1 6-2 2-2 3-4 3-7l0-18c0-3-1-5-3-7-2-1-4-2-6-2l-202 0c-2 0-4 1-6 2-2 2-3 4-3 7l0 18c0 3 1 5 3 7 2 1 4 2 6 2z"/>
<glyph glyph-name="social-angular" unicode="&#89;" d="M214 256l84 0-42 89z m42 224l-224-80 46-272 178-96 178 96 46 272z m88-320l-27 56-122 0-27-56-40 0 128 280 128-280z"/>
</font></defs></svg>
